<svg width="820" height="412" viewBox="0 0 820 412" fill="none" xmlns="http://www.w3.org/2000/svg">
<g clip-path="url(#clip0_736_211)">
<path d="M334 399H188C98.71 399 23.59 338.37 1.55005 256.03" stroke="#FFFFFF" stroke-width="2" stroke-miterlimit="10"/>
<path d="M818.46 256.01C796.43 338.36 721.3 399 632 399H486" stroke="#FFFFFF" stroke-width="2" stroke-miterlimit="10"/>
<path d="M468 13H632C721.29 13 796.41 73.63 818.45 155.97" stroke="#FFFFFF" stroke-width="2" stroke-miterlimit="10"/>
<path d="M1.55005 155.97C23.58 73.63 98.71 13 188 13H352" stroke="#FFFFFF" stroke-width="2" stroke-miterlimit="10"/>
<path d="M700.8 41.55C679.61 32.66 656.35 27.74 631.94 27.74C619.64 27.74 607.62 28.99 596.02 31.37C569.94 36.71 545.93 47.76 525.37 63.15C525.04 63.39 462.93 110.39 410.05 150.41C357.17 110.4 295.06 63.4 294.73 63.15C274.17 47.76 250.16 36.71 224.08 31.37C212.48 28.99 200.46 27.74 188.16 27.74C163.75 27.74 140.49 32.66 119.3 41.55C55.1301 68.49 10.05 131.98 10.05 206C10.05 280.02 55.16 343.54 119.37 370.48C140.53 379.35 163.77 384.25 188.15 384.25C227.87 384.25 264.55 371.24 294.18 349.25L410.05 261.57L525.92 349.25C555.54 371.25 592.23 384.25 631.95 384.25C656.33 384.25 679.58 379.35 700.73 370.48C764.94 343.54 810.05 280.05 810.05 206C810.05 131.95 764.97 68.49 700.8 41.54V41.55ZM336.45 206.07L238.01 279.94C223.8 289.53 206.69 295.13 188.26 295.13C139.07 295.13 99.2 255.22 99.2 206.01C99.2 156.8 139.07 116.88 188.26 116.88C209.97 116.88 229.87 124.65 245.32 137.57L255.95 145.54L336.59 205.96L336.44 206.07H336.45ZM631.83 295.13C613.41 295.13 596.29 289.53 582.08 279.94L483.64 206.07L483.49 205.96L574.76 137.57C590.21 124.65 610.11 116.88 631.82 116.88C681.01 116.88 720.88 156.78 720.88 206.01C720.88 255.24 681.01 295.13 631.82 295.13H631.83Z" fill="url(#paint0_linear_736_211)"/>
<g style="mix-blend-mode:color-burn" opacity="0.24">
<path style="mix-blend-mode:multiply" d="M631.94 384.26C656.32 384.26 679.57 379.36 700.72 370.49C764.93 343.55 810.04 280.06 810.04 206.01H720.88C720.88 255.23 681.01 295.13 631.82 295.13C613.4 295.13 596.28 289.53 582.07 279.94L483.63 206.07L483.59 206.04L410.04 261.58L420.05 269.15L525.91 349.26C555.53 371.26 592.22 384.26 631.94 384.26V384.26Z" fill="url(#paint1_linear_736_211)"/>
<path style="mix-blend-mode:multiply" d="M188.27 116.87C209.98 116.87 229.88 124.64 245.33 137.56L255.96 145.53L336.56 205.92L410.05 150.41C357.17 110.4 295.06 63.4 294.73 63.15C274.17 47.76 250.16 36.71 224.08 31.37C212.48 28.99 200.46 27.74 188.16 27.74C163.75 27.74 140.49 32.66 119.3 41.55C55.1301 68.49 10.05 131.98 10.05 206H99.21C99.21 156.78 139.08 116.87 188.27 116.87V116.87Z" fill="url(#paint2_linear_736_211)"/>
</g>
<path d="M549 313.24L446.41 234.05" stroke="#2B2838" stroke-width="2" stroke-miterlimit="10"/>
<path d="M549 313.24C573.38 332.06 602.13 341.27 630.71 341.48C666.289 341.741 701.603 328.034 727.904 301.5" stroke="#2B2838" stroke-width="2" stroke-miterlimit="10"/>
<path d="M714.58 98.76C749.27 125.54 767.4 165.82 767.28 206.5H767.27C767.18 235.27 757.97 264.25 739.03 288.79C735.393 293.5 731.508 297.905 727.406 302" stroke="#2B2838" stroke-width="2" stroke-miterlimit="10"/>
<path d="M548.61 99.02C572.42 80.48 601.41 70.78 630.7 70.52L630.71 70.52C660 70.27 689.59 79.47 714.58 98.76" stroke="#2B2838" stroke-width="2" stroke-miterlimit="10"/>
<path d="M548.61 99.02L439 183.235" stroke="#2B2838" stroke-width="2" stroke-miterlimit="10"/>
<path d="M271.09 312.24L381 227.797" stroke="#2B2838" stroke-width="2" stroke-miterlimit="10"/>
<path d="M271.09 312.24C246.41 331.29 217.24 340.5 188.3 340.48C153.551 340.454 119.126 327.111 93.2046 301.5" stroke="#2B2838" stroke-width="2" stroke-miterlimit="10"/>
<path d="M91.7081 110C65.9116 136.168 52.5913 170.97 52.8401 206.03L52.8301 206.03C53.0301 234.63 62.2501 263.4 81.0701 287.78C84.4141 292.112 87.9686 296.186 91.7081 299.998" stroke="#2B2838" stroke-width="2" stroke-miterlimit="10"/>
<path d="M282.5 106.521L270.67 97.39C246.88 79.16 218.02 69.67 188.89 69.52C159.76 69.38 130.37 78.58 105.53 97.76C100.395 101.725 95.622 105.986 91.2178 110.5" stroke="#2B2838" stroke-width="2" stroke-miterlimit="10"/>
<path d="M373.7 176.91L285 108.45" stroke="#2B2838" stroke-width="2" stroke-miterlimit="10"/>
<g clip-path="url(#clip1_736_211)">
<path d="M429.211 335.2L429.158 335.056L423.73 320.899C423.621 320.622 423.425 320.386 423.172 320.226C422.984 320.105 422.769 320.031 422.547 320.008C422.324 319.985 422.099 320.014 421.89 320.094C421.68 320.173 421.493 320.301 421.341 320.466C421.19 320.631 421.08 320.83 421.019 321.045L417.356 332.261H402.521L398.857 321.045C398.796 320.83 398.686 320.632 398.535 320.467C398.383 320.302 398.196 320.175 397.987 320.095C397.777 320.016 397.553 319.986 397.33 320.009C397.107 320.032 396.893 320.106 396.704 320.226C396.452 320.386 396.256 320.622 396.146 320.899L390.722 335.059L390.665 335.2C389.884 337.241 389.788 339.48 390.391 341.581C390.994 343.681 392.264 345.529 394.009 346.845L394.029 346.86L394.075 346.896L402.331 353.084L406.427 356.179L408.916 358.06C409.208 358.281 409.564 358.4 409.929 358.4C410.295 358.4 410.651 358.281 410.943 358.06L413.431 356.179L417.527 353.084L425.842 346.86L425.865 346.842C427.61 345.527 428.88 343.68 429.483 341.58C430.087 339.48 429.991 337.241 429.211 335.2V335.2Z" fill="#E24329"/>
<path d="M429.211 335.2L429.158 335.056C426.513 335.599 424.022 336.719 421.862 338.338L409.945 347.349L417.533 353.084L425.848 346.86L425.871 346.842C427.614 345.526 428.883 343.679 429.486 341.579C430.088 339.479 429.992 337.24 429.211 335.2V335.2Z" fill="#FC6D26"/>
<path d="M402.331 353.084L406.427 356.179L408.916 358.06C409.208 358.281 409.563 358.4 409.929 358.4C410.295 358.4 410.651 358.281 410.943 358.06L413.431 356.179L417.527 353.084L409.94 347.349L402.331 353.084Z" fill="#FCA326"/>
<path d="M398.015 338.338C395.856 336.72 393.365 335.6 390.722 335.059L390.665 335.2C389.884 337.241 389.788 339.48 390.391 341.581C390.994 343.681 392.264 345.529 394.009 346.845L394.029 346.86L394.075 346.896L402.331 353.084L409.924 347.349L398.015 338.338Z" fill="#FC6D26"/>
</g>
<path d="M360.748 394.872H357.326C357.264 394.429 357.136 394.036 356.943 393.692C356.751 393.343 356.503 393.046 356.201 392.801C355.899 392.556 355.55 392.369 355.154 392.239C354.764 392.109 354.339 392.043 353.881 392.043C353.053 392.043 352.331 392.249 351.717 392.661C351.102 393.067 350.626 393.661 350.287 394.442C349.949 395.218 349.779 396.161 349.779 397.27C349.779 398.411 349.949 399.369 350.287 400.145C350.631 400.921 351.11 401.507 351.725 401.903C352.339 402.299 353.05 402.497 353.857 402.497C354.311 402.497 354.73 402.437 355.115 402.317C355.506 402.197 355.852 402.023 356.154 401.793C356.456 401.559 356.706 401.275 356.904 400.942C357.107 400.609 357.248 400.228 357.326 399.801L360.748 399.817C360.66 400.551 360.438 401.26 360.084 401.942C359.735 402.619 359.264 403.226 358.67 403.762C358.081 404.293 357.378 404.715 356.561 405.028C355.748 405.335 354.829 405.489 353.803 405.489C352.376 405.489 351.1 405.166 349.975 404.52C348.855 403.874 347.969 402.939 347.318 401.715C346.673 400.491 346.35 399.01 346.35 397.27C346.35 395.525 346.678 394.041 347.334 392.817C347.99 391.593 348.881 390.661 350.006 390.02C351.131 389.374 352.396 389.051 353.803 389.051C354.73 389.051 355.589 389.181 356.381 389.442C357.178 389.702 357.883 390.083 358.498 390.583C359.113 391.077 359.613 391.684 359.998 392.403C360.389 393.122 360.639 393.944 360.748 394.872ZM368.533 405.504C367.32 405.504 366.27 405.247 365.385 404.731C364.505 404.21 363.825 403.486 363.346 402.559C362.867 401.627 362.627 400.546 362.627 399.317C362.627 398.077 362.867 396.994 363.346 396.067C363.825 395.135 364.505 394.411 365.385 393.895C366.27 393.374 367.32 393.114 368.533 393.114C369.747 393.114 370.794 393.374 371.674 393.895C372.559 394.411 373.242 395.135 373.721 396.067C374.2 396.994 374.439 398.077 374.439 399.317C374.439 400.546 374.2 401.627 373.721 402.559C373.242 403.486 372.559 404.21 371.674 404.731C370.794 405.247 369.747 405.504 368.533 405.504ZM368.549 402.926C369.101 402.926 369.562 402.77 369.932 402.458C370.301 402.14 370.58 401.708 370.768 401.161C370.96 400.614 371.057 399.991 371.057 399.293C371.057 398.596 370.96 397.973 370.768 397.426C370.58 396.879 370.301 396.447 369.932 396.129C369.562 395.812 369.101 395.653 368.549 395.653C367.992 395.653 367.523 395.812 367.143 396.129C366.768 396.447 366.484 396.879 366.291 397.426C366.104 397.973 366.01 398.596 366.01 399.293C366.01 399.991 366.104 400.614 366.291 401.161C366.484 401.708 366.768 402.14 367.143 402.458C367.523 402.77 367.992 402.926 368.549 402.926ZM376.604 405.27V393.27H379.775V395.387H379.916C380.166 394.684 380.583 394.129 381.166 393.723C381.749 393.317 382.447 393.114 383.26 393.114C384.083 393.114 384.783 393.319 385.361 393.731C385.939 394.137 386.325 394.689 386.518 395.387H386.643C386.887 394.7 387.33 394.15 387.971 393.739C388.617 393.322 389.38 393.114 390.26 393.114C391.38 393.114 392.288 393.471 392.986 394.184C393.689 394.892 394.041 395.898 394.041 397.2V405.27H390.721V397.856C390.721 397.189 390.544 396.689 390.189 396.356C389.835 396.023 389.393 395.856 388.861 395.856C388.257 395.856 387.786 396.049 387.447 396.434C387.109 396.814 386.939 397.317 386.939 397.942V405.27H383.713V397.786C383.713 397.197 383.544 396.728 383.205 396.379C382.872 396.03 382.432 395.856 381.885 395.856C381.515 395.856 381.182 395.95 380.885 396.137C380.593 396.319 380.361 396.577 380.189 396.911C380.018 397.239 379.932 397.624 379.932 398.067V405.27H376.604ZM396.67 409.77V393.27H399.951V395.286H400.1C400.245 394.963 400.456 394.635 400.732 394.301C401.014 393.963 401.378 393.681 401.826 393.458C402.279 393.228 402.842 393.114 403.514 393.114C404.389 393.114 405.196 393.343 405.936 393.801C406.675 394.254 407.266 394.939 407.709 395.856C408.152 396.767 408.373 397.911 408.373 399.286C408.373 400.624 408.157 401.754 407.725 402.676C407.298 403.593 406.714 404.288 405.975 404.762C405.24 405.231 404.417 405.465 403.506 405.465C402.86 405.465 402.311 405.359 401.857 405.145C401.41 404.931 401.042 404.663 400.756 404.34C400.469 404.012 400.251 403.681 400.1 403.348H399.998V409.77H396.67ZM399.928 399.27C399.928 399.984 400.027 400.606 400.225 401.137C400.423 401.668 400.709 402.083 401.084 402.379C401.459 402.671 401.915 402.817 402.451 402.817C402.993 402.817 403.451 402.668 403.826 402.372C404.201 402.069 404.485 401.653 404.678 401.122C404.876 400.585 404.975 399.968 404.975 399.27C404.975 398.577 404.878 397.968 404.686 397.442C404.493 396.916 404.209 396.504 403.834 396.208C403.459 395.911 402.998 395.762 402.451 395.762C401.91 395.762 401.451 395.905 401.076 396.192C400.706 396.478 400.423 396.885 400.225 397.411C400.027 397.937 399.928 398.556 399.928 399.27ZM413.92 389.27V405.27H410.592V389.27H413.92ZM416.586 405.27V393.27H419.914V405.27H416.586ZM418.258 391.723C417.763 391.723 417.339 391.559 416.984 391.231C416.635 390.898 416.461 390.499 416.461 390.036C416.461 389.577 416.635 389.184 416.984 388.856C417.339 388.523 417.763 388.356 418.258 388.356C418.753 388.356 419.174 388.523 419.523 388.856C419.878 389.184 420.055 389.577 420.055 390.036C420.055 390.499 419.878 390.898 419.523 391.231C419.174 391.559 418.753 391.723 418.258 391.723ZM426.002 405.497C425.236 405.497 424.554 405.364 423.955 405.098C423.356 404.827 422.882 404.429 422.533 403.903C422.189 403.372 422.018 402.71 422.018 401.918C422.018 401.252 422.14 400.692 422.385 400.239C422.63 399.786 422.963 399.421 423.385 399.145C423.807 398.869 424.286 398.661 424.822 398.52C425.364 398.379 425.932 398.28 426.525 398.223C427.223 398.15 427.786 398.083 428.213 398.02C428.64 397.952 428.95 397.853 429.143 397.723C429.335 397.593 429.432 397.4 429.432 397.145V397.098C429.432 396.603 429.275 396.221 428.963 395.95C428.656 395.679 428.218 395.543 427.65 395.543C427.051 395.543 426.575 395.676 426.221 395.942C425.867 396.202 425.632 396.53 425.518 396.926L422.439 396.676C422.596 395.947 422.903 395.317 423.361 394.786C423.82 394.249 424.411 393.838 425.135 393.551C425.864 393.26 426.708 393.114 427.666 393.114C428.333 393.114 428.971 393.192 429.58 393.348C430.195 393.504 430.739 393.747 431.213 394.075C431.692 394.403 432.07 394.825 432.346 395.34C432.622 395.851 432.76 396.463 432.76 397.176V405.27H429.604V403.606H429.51C429.317 403.981 429.059 404.312 428.736 404.598C428.413 404.879 428.025 405.101 427.572 405.262C427.119 405.418 426.596 405.497 426.002 405.497ZM426.955 403.2C427.445 403.2 427.877 403.103 428.252 402.911C428.627 402.713 428.921 402.447 429.135 402.114C429.348 401.78 429.455 401.403 429.455 400.981V399.708C429.351 399.775 429.208 399.838 429.025 399.895C428.848 399.947 428.648 399.997 428.424 400.043C428.2 400.085 427.976 400.124 427.752 400.161C427.528 400.192 427.325 400.221 427.143 400.247C426.752 400.304 426.411 400.395 426.119 400.52C425.827 400.645 425.601 400.814 425.439 401.028C425.278 401.236 425.197 401.497 425.197 401.809C425.197 402.262 425.361 402.609 425.689 402.848C426.023 403.083 426.445 403.2 426.955 403.2ZM438.67 398.333V405.27H435.342V393.27H438.514V395.387H438.654C438.92 394.689 439.365 394.137 439.99 393.731C440.615 393.319 441.373 393.114 442.264 393.114C443.097 393.114 443.824 393.296 444.443 393.661C445.063 394.025 445.545 394.546 445.889 395.223C446.232 395.895 446.404 396.697 446.404 397.629V405.27H443.076V398.223C443.081 397.489 442.894 396.916 442.514 396.504C442.133 396.088 441.61 395.879 440.943 395.879C440.495 395.879 440.1 395.976 439.756 396.168C439.417 396.361 439.152 396.642 438.959 397.012C438.771 397.377 438.675 397.817 438.67 398.333ZM454.449 405.504C453.22 405.504 452.163 405.244 451.277 404.723C450.397 404.197 449.72 403.468 449.246 402.536C448.777 401.603 448.543 400.53 448.543 399.317C448.543 398.088 448.78 397.01 449.254 396.083C449.733 395.15 450.413 394.424 451.293 393.903C452.173 393.377 453.22 393.114 454.434 393.114C455.48 393.114 456.397 393.304 457.184 393.684C457.97 394.064 458.592 394.598 459.051 395.286C459.509 395.973 459.762 396.78 459.809 397.708H456.668C456.579 397.109 456.345 396.627 455.965 396.262C455.59 395.892 455.098 395.708 454.488 395.708C453.973 395.708 453.522 395.848 453.137 396.129C452.757 396.405 452.46 396.809 452.246 397.34C452.033 397.872 451.926 398.515 451.926 399.27C451.926 400.036 452.03 400.687 452.238 401.223C452.452 401.76 452.751 402.168 453.137 402.45C453.522 402.731 453.973 402.872 454.488 402.872C454.868 402.872 455.21 402.793 455.512 402.637C455.819 402.481 456.072 402.254 456.27 401.958C456.473 401.655 456.605 401.293 456.668 400.872H459.809C459.757 401.788 459.507 402.596 459.059 403.293C458.616 403.986 458.004 404.528 457.223 404.918C456.441 405.309 455.517 405.504 454.449 405.504ZM467.408 405.504C466.174 405.504 465.111 405.254 464.221 404.754C463.335 404.249 462.653 403.536 462.174 402.614C461.695 401.687 461.455 400.59 461.455 399.325C461.455 398.09 461.695 397.007 462.174 396.075C462.653 395.142 463.327 394.416 464.197 393.895C465.072 393.374 466.098 393.114 467.275 393.114C468.067 393.114 468.804 393.241 469.486 393.497C470.174 393.747 470.773 394.124 471.283 394.629C471.799 395.135 472.2 395.77 472.486 396.536C472.773 397.296 472.916 398.187 472.916 399.208V400.122H462.783V398.059H469.783C469.783 397.58 469.679 397.155 469.471 396.786C469.262 396.416 468.973 396.127 468.604 395.918C468.239 395.705 467.814 395.598 467.33 395.598C466.825 395.598 466.377 395.715 465.986 395.95C465.601 396.179 465.299 396.489 465.08 396.879C464.861 397.265 464.749 397.694 464.744 398.168V400.129C464.744 400.723 464.854 401.236 465.072 401.668C465.296 402.101 465.611 402.434 466.018 402.668C466.424 402.903 466.906 403.02 467.463 403.02C467.833 403.02 468.171 402.968 468.479 402.864C468.786 402.76 469.049 402.603 469.268 402.395C469.486 402.187 469.653 401.931 469.768 401.629L472.846 401.833C472.689 402.572 472.369 403.218 471.885 403.77C471.406 404.317 470.786 404.744 470.025 405.051C469.27 405.353 468.398 405.504 467.408 405.504Z" fill="#FFFFFF"/>
<path d="M374.271 8.18152C374.208 7.55131 373.94 7.06173 373.466 6.71277C372.992 6.36381 372.349 6.18933 371.536 6.18933C370.984 6.18933 370.518 6.26746 370.138 6.42371C369.757 6.57475 369.466 6.78569 369.263 7.05652C369.065 7.32735 368.966 7.63464 368.966 7.97839C368.955 8.26485 369.015 8.51485 369.146 8.72839C369.281 8.94194 369.466 9.12683 369.7 9.28308C369.935 9.43412 370.205 9.56693 370.513 9.68152C370.82 9.79089 371.148 9.88464 371.497 9.96277L372.935 10.3065C373.632 10.4628 374.273 10.6711 374.856 10.9315C375.44 11.1919 375.945 11.5122 376.372 11.8925C376.799 12.2727 377.13 12.7206 377.364 13.2362C377.604 13.7518 377.726 14.343 377.731 15.0096C377.726 15.9888 377.476 16.8378 376.981 17.5565C376.492 18.2701 375.784 18.8247 374.856 19.2206C373.935 19.6112 372.823 19.8065 371.521 19.8065C370.229 19.8065 369.104 19.6086 368.146 19.2128C367.192 18.8169 366.448 18.231 365.911 17.455C365.38 16.6737 365.101 15.7076 365.075 14.5565H368.349C368.385 15.093 368.539 15.5409 368.81 15.9003C369.086 16.2544 369.453 16.5227 369.911 16.705C370.375 16.882 370.898 16.9706 371.481 16.9706C372.054 16.9706 372.552 16.8872 372.974 16.7206C373.401 16.5539 373.731 16.3221 373.966 16.0253C374.2 15.7284 374.317 15.3872 374.317 15.0018C374.317 14.6425 374.211 14.3404 373.997 14.0956C373.789 13.8508 373.481 13.6425 373.075 13.4706C372.674 13.2987 372.182 13.1425 371.599 13.0018L369.856 12.5643C368.507 12.2362 367.442 11.7232 366.661 11.0253C365.88 10.3274 365.492 9.38725 365.497 8.20496C365.492 7.23621 365.75 6.38985 366.271 5.66589C366.797 4.94194 367.518 4.37683 368.435 3.97058C369.351 3.56433 370.393 3.36121 371.56 3.36121C372.747 3.36121 373.784 3.56433 374.669 3.97058C375.56 4.37683 376.252 4.94194 376.747 5.66589C377.242 6.38985 377.497 7.22839 377.513 8.18152H374.271ZM385.413 19.8143C384.179 19.8143 383.116 19.5643 382.226 19.0643C381.34 18.5591 380.658 17.8456 380.179 16.9237C379.7 15.9966 379.46 14.9003 379.46 13.6346C379.46 12.4003 379.7 11.3169 380.179 10.3846C380.658 9.45235 381.332 8.72579 382.202 8.20496C383.077 7.68412 384.103 7.42371 385.28 7.42371C386.072 7.42371 386.809 7.55131 387.491 7.80652C388.179 8.05652 388.778 8.43412 389.288 8.93933C389.804 9.44454 390.205 10.08 390.491 10.8456C390.778 11.606 390.921 12.4966 390.921 13.5175V14.4315H380.788V12.369H387.788C387.788 11.8899 387.684 11.4654 387.476 11.0956C387.267 10.7258 386.978 10.4367 386.608 10.2284C386.244 10.0149 385.819 9.90808 385.335 9.90808C384.83 9.90808 384.382 10.0253 383.991 10.2596C383.606 10.4888 383.304 10.7987 383.085 11.1893C382.866 11.5747 382.754 12.0044 382.749 12.4784V14.4393C382.749 15.0331 382.858 15.5461 383.077 15.9784C383.301 16.4107 383.616 16.744 384.022 16.9784C384.429 17.2128 384.91 17.33 385.468 17.33C385.838 17.33 386.176 17.2779 386.483 17.1737C386.791 17.0695 387.054 16.9133 387.272 16.705C387.491 16.4966 387.658 16.2414 387.772 15.9393L390.851 16.1425C390.694 16.882 390.374 17.5279 389.89 18.08C389.41 18.6268 388.791 19.0539 388.03 19.3612C387.275 19.6633 386.403 19.8143 385.413 19.8143ZM398.515 19.8143C397.285 19.8143 396.228 19.5539 395.343 19.0331C394.463 18.507 393.785 17.7779 393.312 16.8456C392.843 15.9133 392.608 14.8404 392.608 13.6268C392.608 12.3977 392.845 11.3195 393.319 10.3925C393.799 9.46016 394.478 8.7336 395.358 8.21277C396.239 7.68673 397.285 7.42371 398.499 7.42371C399.546 7.42371 400.463 7.61381 401.249 7.99402C402.035 8.37423 402.658 8.90808 403.116 9.59558C403.575 10.2831 403.827 11.0904 403.874 12.0175H400.733C400.645 11.4185 400.41 10.9367 400.03 10.5721C399.655 10.2024 399.163 10.0175 398.554 10.0175C398.038 10.0175 397.588 10.1581 397.202 10.4393C396.822 10.7154 396.525 11.119 396.312 11.6503C396.098 12.1815 395.991 12.8247 395.991 13.58C395.991 14.3456 396.095 14.9966 396.304 15.5331C396.517 16.0695 396.817 16.4784 397.202 16.7596C397.588 17.0409 398.038 17.1815 398.554 17.1815C398.934 17.1815 399.275 17.1034 399.577 16.9471C399.884 16.7909 400.137 16.5643 400.335 16.2675C400.538 15.9654 400.671 15.6034 400.733 15.1815H403.874C403.822 16.0982 403.572 16.9055 403.124 17.6034C402.681 18.2961 402.069 18.8378 401.288 19.2284C400.507 19.619 399.582 19.8143 398.515 19.8143ZM413.7 14.4706V7.57996H417.028V19.58H413.833V17.4003H413.708C413.437 18.1034 412.987 18.6685 412.356 19.0956C411.731 19.5227 410.968 19.7362 410.067 19.7362C409.265 19.7362 408.56 19.5539 407.95 19.1893C407.341 18.8247 406.864 18.3065 406.521 17.6346C406.182 16.9628 406.01 16.1581 406.005 15.2206V7.57996H409.333V14.6268C409.338 15.3352 409.528 15.8951 409.903 16.3065C410.278 16.718 410.781 16.9237 411.411 16.9237C411.812 16.9237 412.187 16.8326 412.536 16.6503C412.885 16.4628 413.166 16.1867 413.38 15.8221C413.599 15.4576 413.705 15.007 413.7 14.4706ZM419.69 19.58V7.57996H422.917V9.67371H423.042C423.261 8.92891 423.628 8.36641 424.144 7.98621C424.659 7.60079 425.253 7.40808 425.925 7.40808C426.091 7.40808 426.271 7.4185 426.464 7.43933C426.657 7.46016 426.826 7.48881 426.972 7.52527V10.4784C426.815 10.4315 426.599 10.3899 426.323 10.3534C426.047 10.3169 425.795 10.2987 425.565 10.2987C425.076 10.2987 424.638 10.4055 424.253 10.619C423.873 10.8274 423.571 11.119 423.347 11.494C423.128 11.869 423.019 12.3013 423.019 12.7909V19.58H419.69ZM428.692 19.58V7.57996H432.021V19.58H428.692ZM430.364 6.03308C429.869 6.03308 429.445 5.86902 429.091 5.54089C428.742 5.20756 428.567 4.80912 428.567 4.34558C428.567 3.88725 428.742 3.49402 429.091 3.16589C429.445 2.83256 429.869 2.66589 430.364 2.66589C430.859 2.66589 431.281 2.83256 431.63 3.16589C431.984 3.49402 432.161 3.88725 432.161 4.34558C432.161 4.80912 431.984 5.20756 431.63 5.54089C431.281 5.86902 430.859 6.03308 430.364 6.03308ZM441.069 7.57996V10.08H433.843V7.57996H441.069ZM435.483 4.70496H438.812V15.8925C438.812 16.1997 438.858 16.4393 438.952 16.6112C439.046 16.7779 439.176 16.8951 439.343 16.9628C439.515 17.0305 439.713 17.0643 439.937 17.0643C440.093 17.0643 440.249 17.0513 440.405 17.0253C440.562 16.994 440.681 16.9706 440.765 16.955L441.288 19.4315C441.121 19.4836 440.887 19.5435 440.585 19.6112C440.283 19.6841 439.916 19.7284 439.483 19.744C438.681 19.7753 437.978 19.6685 437.374 19.4237C436.775 19.1789 436.309 18.7987 435.976 18.2831C435.642 17.7675 435.478 17.1164 435.483 16.33V4.70496ZM445.292 24.08C444.87 24.08 444.474 24.0461 444.104 23.9784C443.74 23.9159 443.438 23.8352 443.198 23.7362L443.948 21.2518C444.339 21.3716 444.69 21.4367 445.003 21.4471C445.321 21.4576 445.594 21.3846 445.823 21.2284C446.058 21.0721 446.248 20.8065 446.394 20.4315L446.589 19.9237L442.284 7.57996H445.784L448.269 16.3925H448.394L450.901 7.57996H454.425L449.761 20.8768C449.537 21.5227 449.232 22.0852 448.847 22.5643C448.466 23.0487 447.985 23.4211 447.401 23.6815C446.818 23.9471 446.115 24.08 445.292 24.08Z" fill="#FFFFFF"/>
<path d="M257 97H315V113C315 117.418 311.418 121 307 121H257V97Z" fill="#2B2838"/>
<path d="M270.011 115V103.364H274.602C275.485 103.364 276.237 103.532 276.858 103.869C277.479 104.203 277.953 104.667 278.278 105.261C278.608 105.852 278.773 106.534 278.773 107.307C278.773 108.08 278.606 108.761 278.273 109.352C277.939 109.943 277.456 110.403 276.824 110.733C276.195 111.062 275.434 111.227 274.54 111.227H271.614V109.256H274.142C274.616 109.256 275.006 109.174 275.312 109.011C275.623 108.845 275.854 108.616 276.006 108.324C276.161 108.028 276.239 107.689 276.239 107.307C276.239 106.92 276.161 106.583 276.006 106.295C275.854 106.004 275.623 105.778 275.312 105.619C275.002 105.456 274.608 105.375 274.131 105.375H272.472V115H270.011ZM282.746 103.364V115H280.325V103.364H282.746ZM287.173 115.165C286.616 115.165 286.12 115.068 285.685 114.875C285.249 114.678 284.904 114.388 284.651 114.006C284.401 113.619 284.276 113.138 284.276 112.562C284.276 112.078 284.365 111.67 284.543 111.341C284.721 111.011 284.963 110.746 285.27 110.545C285.577 110.345 285.925 110.193 286.315 110.091C286.709 109.989 287.122 109.917 287.554 109.875C288.062 109.822 288.471 109.773 288.781 109.727C289.092 109.678 289.317 109.606 289.457 109.511C289.598 109.417 289.668 109.277 289.668 109.091V109.057C289.668 108.697 289.554 108.419 289.327 108.222C289.103 108.025 288.785 107.926 288.372 107.926C287.937 107.926 287.59 108.023 287.332 108.216C287.075 108.405 286.904 108.644 286.821 108.932L284.582 108.75C284.696 108.22 284.92 107.761 285.253 107.375C285.586 106.985 286.016 106.686 286.543 106.477C287.073 106.265 287.687 106.159 288.384 106.159C288.868 106.159 289.332 106.216 289.776 106.33C290.223 106.443 290.618 106.619 290.963 106.858C291.312 107.097 291.586 107.403 291.787 107.778C291.988 108.15 292.088 108.595 292.088 109.114V115H289.793V113.79H289.724C289.584 114.062 289.397 114.303 289.162 114.511C288.927 114.716 288.645 114.877 288.315 114.994C287.986 115.108 287.605 115.165 287.173 115.165ZM287.866 113.494C288.223 113.494 288.537 113.424 288.81 113.284C289.082 113.14 289.296 112.947 289.452 112.705C289.607 112.462 289.685 112.187 289.685 111.881V110.955C289.609 111.004 289.505 111.049 289.372 111.091C289.243 111.129 289.098 111.165 288.935 111.199C288.772 111.229 288.609 111.258 288.446 111.284C288.283 111.307 288.135 111.328 288.003 111.347C287.719 111.388 287.471 111.455 287.259 111.545C287.046 111.636 286.882 111.759 286.764 111.915C286.647 112.066 286.588 112.256 286.588 112.483C286.588 112.812 286.707 113.064 286.946 113.239C287.188 113.409 287.495 113.494 287.866 113.494ZM296.386 109.955V115H293.966V106.273H296.273V107.812H296.375C296.568 107.305 296.892 106.903 297.347 106.608C297.801 106.309 298.352 106.159 299 106.159C299.606 106.159 300.134 106.292 300.585 106.557C301.036 106.822 301.386 107.201 301.636 107.693C301.886 108.182 302.011 108.765 302.011 109.443V115H299.591V109.875C299.595 109.341 299.458 108.924 299.182 108.625C298.905 108.322 298.525 108.17 298.04 108.17C297.714 108.17 297.426 108.241 297.176 108.381C296.93 108.521 296.737 108.725 296.597 108.994C296.46 109.259 296.39 109.58 296.386 109.955Z" fill="white"/>
<path d="M55.5 97H132.5V113C132.5 117.418 128.918 121 124.5 121H55.5V97Z" fill="#2B2838"/>
<path d="M78.7784 107.438H76.2898C76.2443 107.116 76.1515 106.83 76.0114 106.58C75.8712 106.326 75.6913 106.11 75.4716 105.932C75.2519 105.754 74.9981 105.617 74.7102 105.523C74.4261 105.428 74.1174 105.381 73.7841 105.381C73.1818 105.381 72.6572 105.53 72.2102 105.83C71.7633 106.125 71.4167 106.557 71.1705 107.125C70.9242 107.689 70.8011 108.375 70.8011 109.182C70.8011 110.011 70.9242 110.708 71.1705 111.273C71.4205 111.837 71.7689 112.263 72.2159 112.551C72.6629 112.839 73.1799 112.983 73.767 112.983C74.0966 112.983 74.4015 112.939 74.6818 112.852C74.9659 112.765 75.2178 112.638 75.4375 112.472C75.6572 112.301 75.839 112.095 75.983 111.852C76.1307 111.61 76.233 111.333 76.2898 111.023L78.7784 111.034C78.714 111.568 78.553 112.083 78.2955 112.58C78.0417 113.072 77.6989 113.513 77.267 113.903C76.839 114.29 76.3277 114.597 75.733 114.824C75.142 115.047 74.4735 115.159 73.7273 115.159C72.6894 115.159 71.7614 114.924 70.9432 114.455C70.1288 113.985 69.4848 113.305 69.0114 112.415C68.5417 111.525 68.3068 110.447 68.3068 109.182C68.3068 107.913 68.5455 106.833 69.0227 105.943C69.5 105.053 70.1477 104.375 70.9659 103.909C71.7841 103.439 72.7045 103.205 73.7273 103.205C74.4015 103.205 75.0265 103.299 75.6023 103.489C76.1818 103.678 76.6951 103.955 77.142 104.318C77.589 104.678 77.9527 105.119 78.233 105.642C78.517 106.165 78.6989 106.763 78.7784 107.438ZM80.4972 115V106.273H82.8438V107.795H82.9347C83.0938 107.254 83.3608 106.845 83.7358 106.568C84.1108 106.288 84.5426 106.148 85.0312 106.148C85.1525 106.148 85.2831 106.155 85.4233 106.17C85.5634 106.186 85.6866 106.206 85.7926 106.233V108.381C85.679 108.347 85.5218 108.316 85.321 108.29C85.1203 108.263 84.9366 108.25 84.7699 108.25C84.4138 108.25 84.0956 108.328 83.8153 108.483C83.5388 108.634 83.3191 108.847 83.1562 109.119C82.9972 109.392 82.9176 109.706 82.9176 110.062V115H80.4972ZM90.6151 115.17C89.7173 115.17 88.9446 114.989 88.2969 114.625C87.6529 114.258 87.1567 113.739 86.8082 113.068C86.4598 112.394 86.2855 111.597 86.2855 110.676C86.2855 109.778 86.4598 108.991 86.8082 108.312C87.1567 107.634 87.6473 107.106 88.2798 106.727C88.9162 106.348 89.6624 106.159 90.5185 106.159C91.0942 106.159 91.6302 106.252 92.1264 106.438C92.6264 106.619 93.062 106.894 93.4332 107.261C93.8082 107.629 94.0999 108.091 94.3082 108.648C94.5166 109.201 94.6207 109.848 94.6207 110.591V111.256H87.2514V109.756H92.3423C92.3423 109.407 92.2666 109.098 92.1151 108.83C91.9635 108.561 91.7533 108.35 91.4844 108.199C91.2192 108.044 90.9105 107.966 90.5582 107.966C90.1908 107.966 89.8651 108.051 89.581 108.222C89.3007 108.388 89.081 108.614 88.9219 108.898C88.7628 109.178 88.6813 109.491 88.6776 109.835V111.261C88.6776 111.693 88.7571 112.066 88.9162 112.381C89.0791 112.695 89.3082 112.938 89.6037 113.108C89.8991 113.278 90.2495 113.364 90.6548 113.364C90.9238 113.364 91.17 113.326 91.3935 113.25C91.617 113.174 91.8082 113.061 91.9673 112.909C92.1264 112.758 92.2476 112.572 92.331 112.352L94.5696 112.5C94.456 113.038 94.223 113.508 93.8707 113.909C93.5223 114.307 93.0715 114.617 92.5185 114.841C91.9692 115.061 91.3348 115.17 90.6151 115.17ZM98.6889 115.165C98.1321 115.165 97.6359 115.068 97.2003 114.875C96.7647 114.678 96.42 114.388 96.1662 114.006C95.9162 113.619 95.7912 113.138 95.7912 112.562C95.7912 112.078 95.8802 111.67 96.0582 111.341C96.2363 111.011 96.4787 110.746 96.7855 110.545C97.0923 110.345 97.4408 110.193 97.831 110.091C98.2249 109.989 98.6378 109.917 99.0696 109.875C99.5772 109.822 99.9863 109.773 100.297 109.727C100.607 109.678 100.833 109.606 100.973 109.511C101.113 109.417 101.183 109.277 101.183 109.091V109.057C101.183 108.697 101.07 108.419 100.842 108.222C100.619 108.025 100.301 107.926 99.8878 107.926C99.4522 107.926 99.1056 108.023 98.848 108.216C98.5904 108.405 98.42 108.644 98.3366 108.932L96.098 108.75C96.2116 108.22 96.4351 107.761 96.7685 107.375C97.1018 106.985 97.5317 106.686 98.0582 106.477C98.5885 106.265 99.2022 106.159 99.8991 106.159C100.384 106.159 100.848 106.216 101.291 106.33C101.738 106.443 102.134 106.619 102.479 106.858C102.827 107.097 103.102 107.403 103.303 107.778C103.503 108.15 103.604 108.595 103.604 109.114V115H101.308V113.79H101.24C101.1 114.062 100.912 114.303 100.678 114.511C100.443 114.716 100.161 114.877 99.831 114.994C99.5014 115.108 99.1207 115.165 98.6889 115.165ZM99.3821 113.494C99.7382 113.494 100.053 113.424 100.325 113.284C100.598 113.14 100.812 112.947 100.967 112.705C101.123 112.462 101.2 112.187 101.2 111.881V110.955C101.125 111.004 101.02 111.049 100.888 111.091C100.759 111.129 100.613 111.165 100.45 111.199C100.287 111.229 100.125 111.258 99.9616 111.284C99.7988 111.307 99.651 111.328 99.5185 111.347C99.2344 111.388 98.9863 111.455 98.7741 111.545C98.562 111.636 98.3973 111.759 98.2798 111.915C98.1624 112.066 98.1037 112.256 98.1037 112.483C98.1037 112.812 98.223 113.064 98.4616 113.239C98.7041 113.409 99.0109 113.494 99.3821 113.494ZM110.124 106.273V108.091H104.868V106.273H110.124ZM106.061 104.182H108.482V112.318C108.482 112.542 108.516 112.716 108.584 112.841C108.652 112.962 108.747 113.047 108.868 113.097C108.993 113.146 109.137 113.17 109.3 113.17C109.413 113.17 109.527 113.161 109.641 113.142C109.754 113.119 109.841 113.102 109.902 113.091L110.283 114.892C110.161 114.93 109.991 114.973 109.771 115.023C109.552 115.076 109.285 115.108 108.97 115.119C108.387 115.142 107.875 115.064 107.436 114.886C107 114.708 106.661 114.432 106.419 114.057C106.177 113.682 106.057 113.208 106.061 112.636V104.182ZM115.584 115.17C114.686 115.17 113.913 114.989 113.266 114.625C112.622 114.258 112.125 113.739 111.777 113.068C111.429 112.394 111.254 111.597 111.254 110.676C111.254 109.778 111.429 108.991 111.777 108.312C112.125 107.634 112.616 107.106 113.249 106.727C113.885 106.348 114.631 106.159 115.487 106.159C116.063 106.159 116.599 106.252 117.095 106.438C117.595 106.619 118.031 106.894 118.402 107.261C118.777 107.629 119.069 108.091 119.277 108.648C119.485 109.201 119.589 109.848 119.589 110.591V111.256H112.22V109.756H117.311C117.311 109.407 117.235 109.098 117.084 108.83C116.932 108.561 116.722 108.35 116.453 108.199C116.188 108.044 115.879 107.966 115.527 107.966C115.16 107.966 114.834 108.051 114.55 108.222C114.269 108.388 114.05 108.614 113.891 108.898C113.732 109.178 113.65 109.491 113.646 109.835V111.261C113.646 111.693 113.726 112.066 113.885 112.381C114.048 112.695 114.277 112.938 114.572 113.108C114.868 113.278 115.218 113.364 115.624 113.364C115.893 113.364 116.139 113.326 116.362 113.25C116.586 113.174 116.777 113.061 116.936 112.909C117.095 112.758 117.216 112.572 117.3 112.352L119.538 112.5C119.425 113.038 119.192 113.508 118.839 113.909C118.491 114.307 118.04 114.617 117.487 114.841C116.938 115.061 116.304 115.17 115.584 115.17Z" fill="white"/>
<path d="M58.5 290H129.5V306C129.5 310.418 125.918 314 121.5 314H58.5V290Z" fill="#2B2838"/>
<path d="M73.6136 296.364L76.4261 305.205H76.5341L79.3523 296.364H82.0795L78.0682 308H74.8977L70.8807 296.364H73.6136ZM86.4276 308.17C85.5298 308.17 84.7571 307.989 84.1094 307.625C83.4654 307.258 82.9692 306.739 82.6207 306.068C82.2723 305.394 82.098 304.597 82.098 303.676C82.098 302.778 82.2723 301.991 82.6207 301.312C82.9692 300.634 83.4598 300.106 84.0923 299.727C84.7287 299.348 85.4749 299.159 86.331 299.159C86.9067 299.159 87.4427 299.252 87.9389 299.438C88.4389 299.619 88.8745 299.894 89.2457 300.261C89.6207 300.629 89.9124 301.091 90.1207 301.648C90.3291 302.201 90.4332 302.848 90.4332 303.591V304.256H83.0639V302.756H88.1548C88.1548 302.407 88.0791 302.098 87.9276 301.83C87.776 301.561 87.5658 301.35 87.2969 301.199C87.0317 301.044 86.723 300.966 86.3707 300.966C86.0033 300.966 85.6776 301.051 85.3935 301.222C85.1132 301.388 84.8935 301.614 84.7344 301.898C84.5753 302.178 84.4938 302.491 84.4901 302.835V304.261C84.4901 304.693 84.5696 305.066 84.7287 305.381C84.8916 305.695 85.1207 305.938 85.4162 306.108C85.7116 306.278 86.062 306.364 86.4673 306.364C86.7363 306.364 86.9825 306.326 87.206 306.25C87.4295 306.174 87.6207 306.061 87.7798 305.909C87.9389 305.758 88.0601 305.572 88.1435 305.352L90.3821 305.5C90.2685 306.038 90.0355 306.508 89.6832 306.909C89.3348 307.307 88.884 307.617 88.331 307.841C87.7817 308.061 87.1473 308.17 86.4276 308.17ZM92.0128 308V299.273H94.3594V300.795H94.4503C94.6094 300.254 94.8764 299.845 95.2514 299.568C95.6264 299.288 96.0582 299.148 96.5469 299.148C96.6681 299.148 96.7988 299.155 96.9389 299.17C97.0791 299.186 97.2022 299.206 97.3082 299.233V301.381C97.1946 301.347 97.0374 301.316 96.8366 301.29C96.6359 301.263 96.4522 301.25 96.2855 301.25C95.9295 301.25 95.6113 301.328 95.331 301.483C95.0545 301.634 94.8348 301.847 94.6719 302.119C94.5128 302.392 94.4332 302.706 94.4332 303.062V308H92.0128ZM98.5597 308V299.273H100.98V308H98.5597ZM99.7756 298.148C99.4157 298.148 99.107 298.028 98.8494 297.79C98.5956 297.547 98.4688 297.258 98.4688 296.92C98.4688 296.587 98.5956 296.301 98.8494 296.062C99.107 295.82 99.4157 295.699 99.7756 295.699C100.135 295.699 100.442 295.82 100.696 296.062C100.954 296.301 101.082 296.587 101.082 296.92C101.082 297.258 100.954 297.547 100.696 297.79C100.442 298.028 100.135 298.148 99.7756 298.148ZM107.612 299.273V301.091H102.226V299.273H107.612ZM103.459 308V298.642C103.459 298.009 103.582 297.485 103.828 297.068C104.078 296.652 104.419 296.339 104.851 296.131C105.283 295.922 105.773 295.818 106.322 295.818C106.694 295.818 107.033 295.847 107.339 295.903C107.65 295.96 107.881 296.011 108.033 296.057L107.601 297.875C107.506 297.845 107.389 297.816 107.249 297.79C107.112 297.763 106.972 297.75 106.828 297.75C106.472 297.75 106.224 297.833 106.084 298C105.944 298.163 105.874 298.392 105.874 298.688V308H103.459ZM110.585 311.273C110.278 311.273 109.991 311.248 109.722 311.199C109.456 311.153 109.237 311.095 109.062 311.023L109.608 309.216C109.892 309.303 110.148 309.35 110.375 309.358C110.606 309.366 110.805 309.313 110.972 309.199C111.142 309.085 111.28 308.892 111.386 308.619L111.528 308.25L108.398 299.273H110.943L112.75 305.682H112.841L114.665 299.273H117.227L113.835 308.943C113.672 309.413 113.451 309.822 113.17 310.17C112.894 310.523 112.544 310.794 112.119 310.983C111.695 311.176 111.184 311.273 110.585 311.273Z" fill="white"/>
<path d="M246.5 290H326.5V306C326.5 310.418 322.918 314 318.5 314H246.5V290Z" fill="#2B2838"/>
<path d="M265.824 299.71C265.778 299.252 265.583 298.896 265.239 298.642C264.894 298.388 264.426 298.261 263.835 298.261C263.434 298.261 263.095 298.318 262.818 298.432C262.542 298.542 262.33 298.695 262.182 298.892C262.038 299.089 261.966 299.312 261.966 299.562C261.958 299.771 262.002 299.953 262.097 300.108C262.195 300.263 262.33 300.398 262.5 300.511C262.67 300.621 262.867 300.718 263.091 300.801C263.314 300.881 263.553 300.949 263.807 301.006L264.852 301.256C265.36 301.369 265.826 301.521 266.25 301.71C266.674 301.9 267.042 302.133 267.352 302.409C267.663 302.686 267.903 303.011 268.074 303.386C268.248 303.761 268.337 304.191 268.341 304.676C268.337 305.388 268.155 306.006 267.795 306.528C267.439 307.047 266.924 307.451 266.25 307.739C265.58 308.023 264.771 308.165 263.824 308.165C262.884 308.165 262.066 308.021 261.369 307.733C260.676 307.445 260.134 307.019 259.744 306.455C259.358 305.886 259.155 305.184 259.136 304.347H261.517C261.544 304.737 261.655 305.062 261.852 305.324C262.053 305.581 262.32 305.777 262.653 305.909C262.991 306.038 263.371 306.102 263.795 306.102C264.212 306.102 264.574 306.042 264.881 305.92C265.191 305.799 265.432 305.631 265.602 305.415C265.773 305.199 265.858 304.951 265.858 304.67C265.858 304.409 265.78 304.189 265.625 304.011C265.473 303.833 265.25 303.682 264.955 303.557C264.663 303.432 264.305 303.318 263.881 303.216L262.614 302.898C261.633 302.659 260.858 302.286 260.29 301.778C259.722 301.271 259.439 300.587 259.443 299.727C259.439 299.023 259.627 298.407 260.006 297.881C260.388 297.354 260.913 296.943 261.58 296.648C262.246 296.352 263.004 296.205 263.852 296.205C264.716 296.205 265.47 296.352 266.114 296.648C266.761 296.943 267.265 297.354 267.625 297.881C267.985 298.407 268.17 299.017 268.182 299.71H265.824ZM273.928 308.17C273.03 308.17 272.257 307.989 271.609 307.625C270.965 307.258 270.469 306.739 270.121 306.068C269.772 305.394 269.598 304.597 269.598 303.676C269.598 302.778 269.772 301.991 270.121 301.312C270.469 300.634 270.96 300.106 271.592 299.727C272.229 299.348 272.975 299.159 273.831 299.159C274.407 299.159 274.943 299.252 275.439 299.438C275.939 299.619 276.375 299.894 276.746 300.261C277.121 300.629 277.412 301.091 277.621 301.648C277.829 302.201 277.933 302.848 277.933 303.591V304.256H270.564V302.756H275.655C275.655 302.407 275.579 302.098 275.428 301.83C275.276 301.561 275.066 301.35 274.797 301.199C274.532 301.044 274.223 300.966 273.871 300.966C273.503 300.966 273.178 301.051 272.893 301.222C272.613 301.388 272.393 301.614 272.234 301.898C272.075 302.178 271.994 302.491 271.99 302.835V304.261C271.99 304.693 272.07 305.066 272.229 305.381C272.392 305.695 272.621 305.938 272.916 306.108C273.212 306.278 273.562 306.364 273.967 306.364C274.236 306.364 274.482 306.326 274.706 306.25C274.929 306.174 275.121 306.061 275.28 305.909C275.439 305.758 275.56 305.572 275.643 305.352L277.882 305.5C277.768 306.038 277.536 306.508 277.183 306.909C276.835 307.307 276.384 307.617 275.831 307.841C275.282 308.061 274.647 308.17 273.928 308.17ZM283.456 308.17C282.562 308.17 281.793 307.981 281.149 307.602C280.509 307.22 280.017 306.689 279.672 306.011C279.331 305.333 279.161 304.553 279.161 303.67C279.161 302.777 279.333 301.992 279.678 301.318C280.026 300.64 280.52 300.112 281.161 299.733C281.801 299.35 282.562 299.159 283.445 299.159C284.206 299.159 284.873 299.297 285.445 299.574C286.017 299.85 286.469 300.239 286.803 300.739C287.136 301.239 287.32 301.826 287.354 302.5H285.07C285.005 302.064 284.835 301.714 284.558 301.449C284.286 301.18 283.928 301.045 283.484 301.045C283.109 301.045 282.782 301.148 282.501 301.352C282.225 301.553 282.009 301.847 281.854 302.233C281.698 302.619 281.621 303.087 281.621 303.636C281.621 304.193 281.696 304.667 281.848 305.057C282.003 305.447 282.221 305.744 282.501 305.949C282.782 306.153 283.109 306.256 283.484 306.256C283.761 306.256 284.009 306.199 284.229 306.085C284.452 305.972 284.636 305.807 284.78 305.591C284.928 305.371 285.024 305.108 285.07 304.801H287.354C287.316 305.468 287.134 306.055 286.808 306.562C286.486 307.066 286.041 307.46 285.473 307.744C284.905 308.028 284.232 308.17 283.456 308.17ZM294.5 304.284V299.273H296.92V308H294.597V306.415H294.506C294.309 306.926 293.981 307.337 293.523 307.648C293.068 307.958 292.513 308.114 291.858 308.114C291.275 308.114 290.761 307.981 290.318 307.716C289.875 307.451 289.528 307.074 289.278 306.585C289.032 306.097 288.907 305.511 288.903 304.83V299.273H291.324V304.398C291.328 304.913 291.466 305.32 291.739 305.619C292.011 305.919 292.377 306.068 292.835 306.068C293.127 306.068 293.4 306.002 293.653 305.869C293.907 305.733 294.112 305.532 294.267 305.267C294.426 305.002 294.504 304.674 294.5 304.284ZM298.857 308V299.273H301.203V300.795H301.294C301.453 300.254 301.72 299.845 302.095 299.568C302.47 299.288 302.902 299.148 303.391 299.148C303.512 299.148 303.643 299.155 303.783 299.17C303.923 299.186 304.046 299.206 304.152 299.233V301.381C304.038 301.347 303.881 301.316 303.68 301.29C303.48 301.263 303.296 301.25 303.129 301.25C302.773 301.25 302.455 301.328 302.175 301.483C301.898 301.634 301.679 301.847 301.516 302.119C301.357 302.392 301.277 302.706 301.277 303.062V308H298.857ZM308.974 308.17C308.077 308.17 307.304 307.989 306.656 307.625C306.012 307.258 305.516 306.739 305.168 306.068C304.819 305.394 304.645 304.597 304.645 303.676C304.645 302.778 304.819 301.991 305.168 301.312C305.516 300.634 306.007 300.106 306.639 299.727C307.276 299.348 308.022 299.159 308.878 299.159C309.454 299.159 309.99 299.252 310.486 299.438C310.986 299.619 311.421 299.894 311.793 300.261C312.168 300.629 312.459 301.091 312.668 301.648C312.876 302.201 312.98 302.848 312.98 303.591V304.256H305.611V302.756H310.702C310.702 302.407 310.626 302.098 310.474 301.83C310.323 301.561 310.113 301.35 309.844 301.199C309.579 301.044 309.27 300.966 308.918 300.966C308.55 300.966 308.224 301.051 307.94 301.222C307.66 301.388 307.44 301.614 307.281 301.898C307.122 302.178 307.041 302.491 307.037 302.835V304.261C307.037 304.693 307.116 305.066 307.276 305.381C307.438 305.695 307.668 305.938 307.963 306.108C308.259 306.278 308.609 306.364 309.014 306.364C309.283 306.364 309.529 306.326 309.753 306.25C309.976 306.174 310.168 306.061 310.327 305.909C310.486 305.758 310.607 305.572 310.69 305.352L312.929 305.5C312.815 306.038 312.582 306.508 312.23 306.909C311.882 307.307 311.431 307.617 310.878 307.841C310.329 308.061 309.694 308.17 308.974 308.17Z" fill="white"/>
<path d="M490 97H582V113C582 117.418 578.418 121 574 121H490V97Z" fill="#2B2838"/>
<path d="M503.011 115V103.364H507.602C508.485 103.364 509.237 103.532 509.858 103.869C510.479 104.203 510.953 104.667 511.278 105.261C511.608 105.852 511.773 106.534 511.773 107.307C511.773 108.08 511.606 108.761 511.273 109.352C510.939 109.943 510.456 110.403 509.824 110.733C509.195 111.062 508.434 111.227 507.54 111.227H504.614V109.256H507.142C507.616 109.256 508.006 109.174 508.312 109.011C508.623 108.845 508.854 108.616 509.006 108.324C509.161 108.028 509.239 107.689 509.239 107.307C509.239 106.92 509.161 106.583 509.006 106.295C508.854 106.004 508.623 105.778 508.312 105.619C508.002 105.456 507.608 105.375 507.131 105.375H505.472V115H503.011ZM515.58 115.165C515.023 115.165 514.527 115.068 514.091 114.875C513.655 114.678 513.311 114.388 513.057 114.006C512.807 113.619 512.682 113.138 512.682 112.562C512.682 112.078 512.771 111.67 512.949 111.341C513.127 111.011 513.369 110.746 513.676 110.545C513.983 110.345 514.331 110.193 514.722 110.091C515.116 109.989 515.528 109.917 515.96 109.875C516.468 109.822 516.877 109.773 517.188 109.727C517.498 109.678 517.723 109.606 517.864 109.511C518.004 109.417 518.074 109.277 518.074 109.091V109.057C518.074 108.697 517.96 108.419 517.733 108.222C517.509 108.025 517.191 107.926 516.778 107.926C516.343 107.926 515.996 108.023 515.739 108.216C515.481 108.405 515.311 108.644 515.227 108.932L512.989 108.75C513.102 108.22 513.326 107.761 513.659 107.375C513.992 106.985 514.422 106.686 514.949 106.477C515.479 106.265 516.093 106.159 516.79 106.159C517.275 106.159 517.739 106.216 518.182 106.33C518.629 106.443 519.025 106.619 519.369 106.858C519.718 107.097 519.992 107.403 520.193 107.778C520.394 108.15 520.494 108.595 520.494 109.114V115H518.199V113.79H518.131C517.991 114.062 517.803 114.303 517.568 114.511C517.333 114.716 517.051 114.877 516.722 114.994C516.392 115.108 516.011 115.165 515.58 115.165ZM516.273 113.494C516.629 113.494 516.943 113.424 517.216 113.284C517.489 113.14 517.703 112.947 517.858 112.705C518.013 112.462 518.091 112.187 518.091 111.881V110.955C518.015 111.004 517.911 111.049 517.778 111.091C517.65 111.129 517.504 111.165 517.341 111.199C517.178 111.229 517.015 111.258 516.852 111.284C516.689 111.307 516.542 111.328 516.409 111.347C516.125 111.388 515.877 111.455 515.665 111.545C515.453 111.636 515.288 111.759 515.17 111.915C515.053 112.066 514.994 112.256 514.994 112.483C514.994 112.812 515.114 113.064 515.352 113.239C515.595 113.409 515.902 113.494 516.273 113.494ZM526.315 115.17C525.421 115.17 524.652 114.981 524.009 114.602C523.368 114.22 522.876 113.689 522.531 113.011C522.19 112.333 522.02 111.553 522.02 110.67C522.02 109.777 522.192 108.992 522.537 108.318C522.885 107.64 523.38 107.112 524.02 106.733C524.66 106.35 525.421 106.159 526.304 106.159C527.065 106.159 527.732 106.297 528.304 106.574C528.876 106.85 529.329 107.239 529.662 107.739C529.995 108.239 530.179 108.826 530.213 109.5H527.929C527.865 109.064 527.694 108.714 527.418 108.449C527.145 108.18 526.787 108.045 526.344 108.045C525.969 108.045 525.641 108.148 525.361 108.352C525.084 108.553 524.868 108.847 524.713 109.233C524.558 109.619 524.48 110.087 524.48 110.636C524.48 111.193 524.556 111.667 524.707 112.057C524.863 112.447 525.08 112.744 525.361 112.949C525.641 113.153 525.969 113.256 526.344 113.256C526.62 113.256 526.868 113.199 527.088 113.085C527.312 112.972 527.495 112.807 527.639 112.591C527.787 112.371 527.884 112.108 527.929 111.801H530.213C530.175 112.468 529.993 113.055 529.668 113.562C529.346 114.066 528.901 114.46 528.332 114.744C527.764 115.028 527.092 115.17 526.315 115.17ZM533.956 112.489L533.962 109.585H534.314L537.109 106.273H539.888L536.132 110.659H535.558L533.956 112.489ZM531.763 115V103.364H534.183V115H531.763ZM537.217 115L534.649 111.199L536.263 109.489L540.053 115H537.217ZM543.564 115.165C543.007 115.165 542.511 115.068 542.075 114.875C541.64 114.678 541.295 114.388 541.041 114.006C540.791 113.619 540.666 113.138 540.666 112.562C540.666 112.078 540.755 111.67 540.933 111.341C541.111 111.011 541.354 110.746 541.661 110.545C541.967 110.345 542.316 110.193 542.706 110.091C543.1 109.989 543.513 109.917 543.945 109.875C544.452 109.822 544.861 109.773 545.172 109.727C545.482 109.678 545.708 109.606 545.848 109.511C545.988 109.417 546.058 109.277 546.058 109.091V109.057C546.058 108.697 545.945 108.419 545.717 108.222C545.494 108.025 545.176 107.926 544.763 107.926C544.327 107.926 543.981 108.023 543.723 108.216C543.465 108.405 543.295 108.644 543.212 108.932L540.973 108.75C541.087 108.22 541.31 107.761 541.643 107.375C541.977 106.985 542.407 106.686 542.933 106.477C543.464 106.265 544.077 106.159 544.774 106.159C545.259 106.159 545.723 106.216 546.166 106.33C546.613 106.443 547.009 106.619 547.354 106.858C547.702 107.097 547.977 107.403 548.178 107.778C548.378 108.15 548.479 108.595 548.479 109.114V115H546.183V113.79H546.115C545.975 114.062 545.787 114.303 545.553 114.511C545.318 114.716 545.036 114.877 544.706 114.994C544.376 115.108 543.996 115.165 543.564 115.165ZM544.257 113.494C544.613 113.494 544.928 113.424 545.2 113.284C545.473 113.14 545.687 112.947 545.842 112.705C545.998 112.462 546.075 112.187 546.075 111.881V110.955C546 111.004 545.895 111.049 545.763 111.091C545.634 111.129 545.488 111.165 545.325 111.199C545.162 111.229 545 111.258 544.837 111.284C544.674 111.307 544.526 111.328 544.393 111.347C544.109 111.388 543.861 111.455 543.649 111.545C543.437 111.636 543.272 111.759 543.155 111.915C543.037 112.066 542.979 112.256 542.979 112.483C542.979 112.812 543.098 113.064 543.337 113.239C543.579 113.409 543.886 113.494 544.257 113.494ZM554.288 118.455C553.504 118.455 552.832 118.347 552.271 118.131C551.714 117.919 551.271 117.629 550.942 117.261C550.612 116.894 550.398 116.481 550.3 116.023L552.538 115.722C552.607 115.896 552.714 116.059 552.862 116.21C553.01 116.362 553.205 116.483 553.447 116.574C553.694 116.669 553.993 116.716 554.345 116.716C554.872 116.716 555.305 116.587 555.646 116.33C555.991 116.076 556.163 115.65 556.163 115.051V113.455H556.061C555.955 113.697 555.796 113.926 555.584 114.142C555.372 114.358 555.099 114.534 554.766 114.67C554.432 114.807 554.035 114.875 553.572 114.875C552.917 114.875 552.321 114.723 551.783 114.42C551.249 114.114 550.822 113.646 550.504 113.017C550.19 112.384 550.033 111.585 550.033 110.619C550.033 109.631 550.194 108.805 550.516 108.142C550.838 107.479 551.266 106.983 551.8 106.653C552.338 106.324 552.927 106.159 553.567 106.159C554.055 106.159 554.464 106.242 554.794 106.409C555.124 106.572 555.389 106.777 555.589 107.023C555.794 107.265 555.951 107.504 556.061 107.739H556.152V106.273H558.555V115.085C558.555 115.828 558.374 116.449 558.01 116.949C557.646 117.449 557.143 117.824 556.499 118.074C555.858 118.328 555.122 118.455 554.288 118.455ZM554.339 113.057C554.73 113.057 555.059 112.96 555.328 112.767C555.601 112.57 555.809 112.29 555.953 111.926C556.101 111.559 556.175 111.119 556.175 110.608C556.175 110.097 556.103 109.653 555.959 109.278C555.815 108.9 555.607 108.606 555.334 108.398C555.061 108.189 554.73 108.085 554.339 108.085C553.942 108.085 553.607 108.193 553.334 108.409C553.061 108.621 552.855 108.917 552.714 109.295C552.574 109.674 552.504 110.112 552.504 110.608C552.504 111.112 552.574 111.547 552.714 111.915C552.858 112.278 553.065 112.561 553.334 112.761C553.607 112.958 553.942 113.057 554.339 113.057ZM564.459 115.17C563.561 115.17 562.788 114.989 562.141 114.625C561.497 114.258 561 113.739 560.652 113.068C560.304 112.394 560.129 111.597 560.129 110.676C560.129 109.778 560.304 108.991 560.652 108.312C561 107.634 561.491 107.106 562.124 106.727C562.76 106.348 563.506 106.159 564.362 106.159C564.938 106.159 565.474 106.252 565.97 106.438C566.47 106.619 566.906 106.894 567.277 107.261C567.652 107.629 567.944 108.091 568.152 108.648C568.36 109.201 568.464 109.848 568.464 110.591V111.256H561.095V109.756H566.186C566.186 109.407 566.11 109.098 565.959 108.83C565.807 108.561 565.597 108.35 565.328 108.199C565.063 108.044 564.754 107.966 564.402 107.966C564.035 107.966 563.709 108.051 563.425 108.222C563.144 108.388 562.925 108.614 562.766 108.898C562.607 109.178 562.525 109.491 562.521 109.835V111.261C562.521 111.693 562.601 112.066 562.76 112.381C562.923 112.695 563.152 112.938 563.447 113.108C563.743 113.278 564.093 113.364 564.499 113.364C564.768 113.364 565.014 113.326 565.237 113.25C565.461 113.174 565.652 113.061 565.811 112.909C565.97 112.758 566.091 112.572 566.175 112.352L568.413 112.5C568.3 113.038 568.067 113.508 567.714 113.909C567.366 114.307 566.915 114.617 566.362 114.841C565.813 115.061 565.179 115.17 564.459 115.17Z" fill="white"/>
<path d="M688 97H767V113C767 117.418 763.418 121 759 121H688V97Z" fill="#2B2838"/>
<path d="M705.136 115H701.011V103.364H705.17C706.341 103.364 707.348 103.597 708.193 104.062C709.038 104.525 709.688 105.189 710.142 106.057C710.6 106.924 710.83 107.962 710.83 109.17C710.83 110.383 710.6 111.424 710.142 112.295C709.688 113.167 709.034 113.835 708.182 114.301C707.333 114.767 706.318 115 705.136 115ZM703.472 112.892H705.034C705.761 112.892 706.373 112.763 706.869 112.506C707.369 112.244 707.744 111.841 707.994 111.295C708.248 110.746 708.375 110.038 708.375 109.17C708.375 108.311 708.248 107.608 707.994 107.062C707.744 106.517 707.371 106.116 706.875 105.858C706.379 105.6 705.767 105.472 705.04 105.472H703.472V112.892ZM716.584 115.17C715.686 115.17 714.913 114.989 714.266 114.625C713.622 114.258 713.125 113.739 712.777 113.068C712.429 112.394 712.254 111.597 712.254 110.676C712.254 109.778 712.429 108.991 712.777 108.312C713.125 107.634 713.616 107.106 714.249 106.727C714.885 106.348 715.631 106.159 716.487 106.159C717.063 106.159 717.599 106.252 718.095 106.438C718.595 106.619 719.031 106.894 719.402 107.261C719.777 107.629 720.069 108.091 720.277 108.648C720.485 109.201 720.589 109.848 720.589 110.591V111.256H713.22V109.756H718.311C718.311 109.407 718.235 109.098 718.084 108.83C717.932 108.561 717.722 108.35 717.453 108.199C717.188 108.044 716.879 107.966 716.527 107.966C716.16 107.966 715.834 108.051 715.55 108.222C715.269 108.388 715.05 108.614 714.891 108.898C714.732 109.178 714.65 109.491 714.646 109.835V111.261C714.646 111.693 714.726 112.066 714.885 112.381C715.048 112.695 715.277 112.938 715.572 113.108C715.868 113.278 716.218 113.364 716.624 113.364C716.893 113.364 717.139 113.326 717.362 113.25C717.586 113.174 717.777 113.061 717.936 112.909C718.095 112.758 718.216 112.572 718.3 112.352L720.538 112.5C720.425 113.038 720.192 113.508 719.839 113.909C719.491 114.307 719.04 114.617 718.487 114.841C717.938 115.061 717.304 115.17 716.584 115.17ZM722.169 118.273V106.273H724.555V107.739H724.663C724.769 107.504 724.923 107.265 725.124 107.023C725.328 106.777 725.593 106.572 725.919 106.409C726.249 106.242 726.658 106.159 727.146 106.159C727.783 106.159 728.37 106.326 728.908 106.659C729.446 106.989 729.875 107.487 730.197 108.153C730.519 108.816 730.68 109.648 730.68 110.648C730.68 111.621 730.523 112.443 730.209 113.114C729.898 113.78 729.474 114.286 728.936 114.631C728.402 114.972 727.804 115.142 727.141 115.142C726.671 115.142 726.271 115.064 725.942 114.909C725.616 114.754 725.349 114.559 725.141 114.324C724.932 114.085 724.773 113.845 724.663 113.602H724.589V118.273H722.169ZM724.538 110.636C724.538 111.155 724.61 111.608 724.754 111.994C724.898 112.381 725.107 112.682 725.379 112.898C725.652 113.11 725.983 113.216 726.374 113.216C726.768 113.216 727.101 113.108 727.374 112.892C727.646 112.672 727.853 112.369 727.993 111.983C728.137 111.593 728.209 111.144 728.209 110.636C728.209 110.133 728.139 109.689 727.999 109.307C727.858 108.924 727.652 108.625 727.379 108.409C727.107 108.193 726.771 108.085 726.374 108.085C725.98 108.085 725.646 108.189 725.374 108.398C725.105 108.606 724.898 108.902 724.754 109.284C724.61 109.667 724.538 110.117 724.538 110.636ZM734.714 103.364V115H732.294V103.364H734.714ZM740.597 115.17C739.714 115.17 738.951 114.983 738.307 114.608C737.667 114.229 737.172 113.703 736.824 113.028C736.475 112.35 736.301 111.564 736.301 110.67C736.301 109.769 736.475 108.981 736.824 108.307C737.172 107.629 737.667 107.102 738.307 106.727C738.951 106.348 739.714 106.159 740.597 106.159C741.479 106.159 742.241 106.348 742.881 106.727C743.525 107.102 744.021 107.629 744.369 108.307C744.718 108.981 744.892 109.769 744.892 110.67C744.892 111.564 744.718 112.35 744.369 113.028C744.021 113.703 743.525 114.229 742.881 114.608C742.241 114.983 741.479 115.17 740.597 115.17ZM740.608 113.295C741.009 113.295 741.345 113.182 741.614 112.955C741.883 112.723 742.085 112.409 742.222 112.011C742.362 111.614 742.432 111.161 742.432 110.653C742.432 110.146 742.362 109.693 742.222 109.295C742.085 108.898 741.883 108.583 741.614 108.352C741.345 108.121 741.009 108.006 740.608 108.006C740.203 108.006 739.862 108.121 739.585 108.352C739.313 108.583 739.106 108.898 738.966 109.295C738.83 109.693 738.761 110.146 738.761 110.653C738.761 111.161 738.83 111.614 738.966 112.011C739.106 112.409 739.313 112.723 739.585 112.955C739.862 113.182 740.203 113.295 740.608 113.295ZM747.679 118.273C747.372 118.273 747.084 118.248 746.815 118.199C746.55 118.153 746.33 118.095 746.156 118.023L746.702 116.216C746.986 116.303 747.241 116.35 747.469 116.358C747.7 116.366 747.899 116.313 748.065 116.199C748.236 116.085 748.374 115.892 748.48 115.619L748.622 115.25L745.491 106.273H748.037L749.844 112.682H749.935L751.759 106.273H754.321L750.929 115.943C750.766 116.413 750.545 116.822 750.264 117.17C749.988 117.523 749.637 117.794 749.213 117.983C748.789 118.176 748.277 118.273 747.679 118.273Z" fill="white"/>
<path d="M685 290H771V306C771 310.418 767.418 314 763 314H685V290Z" fill="#2B2838"/>
<path d="M698.011 296.364H701.045L704.25 304.182H704.386L707.591 296.364H710.625V308H708.239V300.426H708.142L705.131 307.943H703.506L700.494 300.398H700.398V308H698.011V296.364ZM716.55 308.17C715.667 308.17 714.904 307.983 714.26 307.608C713.62 307.229 713.125 306.703 712.777 306.028C712.429 305.35 712.254 304.564 712.254 303.67C712.254 302.769 712.429 301.981 712.777 301.307C713.125 300.629 713.62 300.102 714.26 299.727C714.904 299.348 715.667 299.159 716.55 299.159C717.432 299.159 718.194 299.348 718.834 299.727C719.478 300.102 719.974 300.629 720.322 301.307C720.671 301.981 720.845 302.769 720.845 303.67C720.845 304.564 720.671 305.35 720.322 306.028C719.974 306.703 719.478 307.229 718.834 307.608C718.194 307.983 717.432 308.17 716.55 308.17ZM716.561 306.295C716.963 306.295 717.298 306.182 717.567 305.955C717.836 305.723 718.038 305.409 718.175 305.011C718.315 304.614 718.385 304.161 718.385 303.653C718.385 303.146 718.315 302.693 718.175 302.295C718.038 301.898 717.836 301.583 717.567 301.352C717.298 301.121 716.963 301.006 716.561 301.006C716.156 301.006 715.815 301.121 715.538 301.352C715.266 301.583 715.059 301.898 714.919 302.295C714.783 302.693 714.714 303.146 714.714 303.653C714.714 304.161 714.783 304.614 714.919 305.011C715.059 305.409 715.266 305.723 715.538 305.955C715.815 306.182 716.156 306.295 716.561 306.295ZM724.839 302.955V308H722.419V299.273H724.726V300.812H724.828C725.021 300.305 725.345 299.903 725.8 299.608C726.254 299.309 726.805 299.159 727.453 299.159C728.059 299.159 728.588 299.292 729.038 299.557C729.489 299.822 729.839 300.201 730.089 300.693C730.339 301.182 730.464 301.765 730.464 302.443V308H728.044V302.875C728.048 302.341 727.911 301.924 727.635 301.625C727.358 301.322 726.978 301.17 726.493 301.17C726.167 301.17 725.879 301.241 725.629 301.381C725.383 301.521 725.19 301.725 725.05 301.994C724.913 302.259 724.843 302.58 724.839 302.955ZM732.372 308V299.273H734.793V308H732.372ZM733.588 298.148C733.228 298.148 732.92 298.028 732.662 297.79C732.408 297.547 732.281 297.258 732.281 296.92C732.281 296.587 732.408 296.301 732.662 296.062C732.92 295.82 733.228 295.699 733.588 295.699C733.948 295.699 734.255 295.82 734.509 296.062C734.766 296.301 734.895 296.587 734.895 296.92C734.895 297.258 734.766 297.547 734.509 297.79C734.255 298.028 733.948 298.148 733.588 298.148ZM741.374 299.273V301.091H736.118V299.273H741.374ZM737.311 297.182H739.732V305.318C739.732 305.542 739.766 305.716 739.834 305.841C739.902 305.962 739.997 306.047 740.118 306.097C740.243 306.146 740.387 306.17 740.55 306.17C740.663 306.17 740.777 306.161 740.891 306.142C741.004 306.119 741.091 306.102 741.152 306.091L741.533 307.892C741.411 307.93 741.241 307.973 741.021 308.023C740.802 308.076 740.535 308.108 740.22 308.119C739.637 308.142 739.125 308.064 738.686 307.886C738.25 307.708 737.911 307.432 737.669 307.057C737.427 306.682 737.307 306.208 737.311 305.636V297.182ZM746.8 308.17C745.917 308.17 745.154 307.983 744.51 307.608C743.87 307.229 743.375 306.703 743.027 306.028C742.679 305.35 742.504 304.564 742.504 303.67C742.504 302.769 742.679 301.981 743.027 301.307C743.375 300.629 743.87 300.102 744.51 299.727C745.154 299.348 745.917 299.159 746.8 299.159C747.682 299.159 748.444 299.348 749.084 299.727C749.728 300.102 750.224 300.629 750.572 301.307C750.921 301.981 751.095 302.769 751.095 303.67C751.095 304.564 750.921 305.35 750.572 306.028C750.224 306.703 749.728 307.229 749.084 307.608C748.444 307.983 747.682 308.17 746.8 308.17ZM746.811 306.295C747.213 306.295 747.548 306.182 747.817 305.955C748.086 305.723 748.288 305.409 748.425 305.011C748.565 304.614 748.635 304.161 748.635 303.653C748.635 303.146 748.565 302.693 748.425 302.295C748.288 301.898 748.086 301.583 747.817 301.352C747.548 301.121 747.213 301.006 746.811 301.006C746.406 301.006 746.065 301.121 745.788 301.352C745.516 301.583 745.309 301.898 745.169 302.295C745.033 302.693 744.964 303.146 744.964 303.653C744.964 304.161 745.033 304.614 745.169 305.011C745.309 305.409 745.516 305.723 745.788 305.955C746.065 306.182 746.406 306.295 746.811 306.295ZM752.669 308V299.273H755.016V300.795H755.107C755.266 300.254 755.533 299.845 755.908 299.568C756.283 299.288 756.714 299.148 757.203 299.148C757.324 299.148 757.455 299.155 757.595 299.17C757.735 299.186 757.858 299.206 757.964 299.233V301.381C757.851 301.347 757.694 301.316 757.493 301.29C757.292 301.263 757.108 301.25 756.942 301.25C756.586 301.25 756.268 301.328 755.987 301.483C755.711 301.634 755.491 301.847 755.328 302.119C755.169 302.392 755.089 302.706 755.089 303.062V308H752.669Z" fill="white"/>
<path d="M495.5 290H576.5V306C576.5 310.418 572.918 314 568.5 314H495.5V290Z" fill="#2B2838"/>
<path d="M516.227 300.125C516.148 299.848 516.036 299.604 515.892 299.392C515.748 299.176 515.572 298.994 515.364 298.847C515.159 298.695 514.924 298.58 514.659 298.5C514.398 298.42 514.108 298.381 513.79 298.381C513.195 298.381 512.672 298.528 512.222 298.824C511.775 299.119 511.426 299.549 511.176 300.114C510.926 300.674 510.801 301.36 510.801 302.17C510.801 302.981 510.924 303.67 511.17 304.239C511.417 304.807 511.765 305.241 512.216 305.54C512.667 305.835 513.199 305.983 513.812 305.983C514.369 305.983 514.845 305.884 515.239 305.688C515.636 305.487 515.939 305.205 516.148 304.841C516.36 304.477 516.466 304.047 516.466 303.551L516.966 303.625H513.966V301.773H518.835V303.239C518.835 304.261 518.619 305.14 518.188 305.875C517.756 306.606 517.161 307.17 516.403 307.568C515.646 307.962 514.778 308.159 513.801 308.159C512.71 308.159 511.752 307.919 510.926 307.438C510.1 306.953 509.456 306.265 508.994 305.375C508.536 304.481 508.307 303.42 508.307 302.193C508.307 301.25 508.443 300.409 508.716 299.67C508.992 298.928 509.379 298.299 509.875 297.784C510.371 297.269 510.949 296.877 511.608 296.608C512.267 296.339 512.981 296.205 513.75 296.205C514.409 296.205 515.023 296.301 515.591 296.494C516.159 296.684 516.663 296.953 517.102 297.301C517.545 297.65 517.907 298.064 518.188 298.545C518.468 299.023 518.648 299.549 518.727 300.125H516.227ZM524.581 308.17C523.698 308.17 522.935 307.983 522.291 307.608C521.651 307.229 521.157 306.703 520.808 306.028C520.46 305.35 520.286 304.564 520.286 303.67C520.286 302.769 520.46 301.981 520.808 301.307C521.157 300.629 521.651 300.102 522.291 299.727C522.935 299.348 523.698 299.159 524.581 299.159C525.464 299.159 526.225 299.348 526.865 299.727C527.509 300.102 528.005 300.629 528.354 301.307C528.702 301.981 528.876 302.769 528.876 303.67C528.876 304.564 528.702 305.35 528.354 306.028C528.005 306.703 527.509 307.229 526.865 307.608C526.225 307.983 525.464 308.17 524.581 308.17ZM524.592 306.295C524.994 306.295 525.329 306.182 525.598 305.955C525.867 305.723 526.07 305.409 526.206 305.011C526.346 304.614 526.416 304.161 526.416 303.653C526.416 303.146 526.346 302.693 526.206 302.295C526.07 301.898 525.867 301.583 525.598 301.352C525.329 301.121 524.994 301.006 524.592 301.006C524.187 301.006 523.846 301.121 523.57 301.352C523.297 301.583 523.09 301.898 522.95 302.295C522.814 302.693 522.746 303.146 522.746 303.653C522.746 304.161 522.814 304.614 522.95 305.011C523.09 305.409 523.297 305.723 523.57 305.955C523.846 306.182 524.187 306.295 524.592 306.295ZM538.305 299.273L535.254 308H532.527L529.476 299.273H532.033L533.845 305.517H533.936L535.743 299.273H538.305ZM543.24 308.17C542.342 308.17 541.57 307.989 540.922 307.625C540.278 307.258 539.782 306.739 539.433 306.068C539.085 305.394 538.911 304.597 538.911 303.676C538.911 302.778 539.085 301.991 539.433 301.312C539.782 300.634 540.272 300.106 540.905 299.727C541.541 299.348 542.287 299.159 543.143 299.159C543.719 299.159 544.255 299.252 544.751 299.438C545.251 299.619 545.687 299.894 546.058 300.261C546.433 300.629 546.725 301.091 546.933 301.648C547.142 302.201 547.246 302.848 547.246 303.591V304.256H539.876V302.756H544.967C544.967 302.407 544.892 302.098 544.74 301.83C544.589 301.561 544.378 301.35 544.109 301.199C543.844 301.044 543.536 300.966 543.183 300.966C542.816 300.966 542.49 301.051 542.206 301.222C541.926 301.388 541.706 301.614 541.547 301.898C541.388 302.178 541.306 302.491 541.303 302.835V304.261C541.303 304.693 541.382 305.066 541.541 305.381C541.704 305.695 541.933 305.938 542.229 306.108C542.524 306.278 542.875 306.364 543.28 306.364C543.549 306.364 543.795 306.326 544.018 306.25C544.242 306.174 544.433 306.061 544.592 305.909C544.751 305.758 544.873 305.572 544.956 305.352L547.195 305.5C547.081 306.038 546.848 306.508 546.496 306.909C546.147 307.307 545.696 307.617 545.143 307.841C544.594 308.061 543.96 308.17 543.24 308.17ZM548.825 308V299.273H551.172V300.795H551.263C551.422 300.254 551.689 299.845 552.064 299.568C552.439 299.288 552.871 299.148 553.359 299.148C553.481 299.148 553.611 299.155 553.751 299.17C553.892 299.186 554.015 299.206 554.121 299.233V301.381C554.007 301.347 553.85 301.316 553.649 301.29C553.448 301.263 553.265 301.25 553.098 301.25C552.742 301.25 552.424 301.328 552.143 301.483C551.867 301.634 551.647 301.847 551.484 302.119C551.325 302.392 551.246 302.706 551.246 303.062V308H548.825ZM557.793 302.955V308H555.372V299.273H557.679V300.812H557.781C557.974 300.305 558.298 299.903 558.753 299.608C559.207 299.309 559.759 299.159 560.406 299.159C561.012 299.159 561.541 299.292 561.991 299.557C562.442 299.822 562.793 300.201 563.043 300.693C563.293 301.182 563.418 301.765 563.418 302.443V308H560.997V302.875C561.001 302.341 560.865 301.924 560.588 301.625C560.312 301.322 559.931 301.17 559.446 301.17C559.12 301.17 558.832 301.241 558.582 301.381C558.336 301.521 558.143 301.725 558.003 301.994C557.866 302.259 557.796 302.58 557.793 302.955Z" fill="white"/>
<path d="M324.488 204.5C296.314 183.847 246.866 146.128 236.563 138.683C222.909 128.815 206.134 123 188 123C142.16 123 105 160.16 105 206C105 251.84 142.16 289 188 289L179 280" stroke="#D1D0D3" stroke-width="2"/>
<path d="M495.512 204.5C523.686 183.847 573.134 146.128 583.437 138.683C597.091 128.815 613.866 123 632 123C677.84 123 715 160.16 715 206C715 251.84 677.84 289 632 289L641 280" stroke="#D1D0D3" stroke-width="2"/>
<rect x="249.835" y="166.545" width="321" height="72" rx="36" fill="white"/>
<path d="M288.244 219.545H275.869V184.636H288.346C291.858 184.636 294.88 185.335 297.415 186.732C299.949 188.119 301.897 190.113 303.261 192.715C304.636 195.318 305.324 198.431 305.324 202.056C305.324 205.693 304.636 208.818 303.261 211.431C301.897 214.045 299.937 216.051 297.38 217.448C294.835 218.846 291.79 219.545 288.244 219.545ZM283.25 213.221H287.937C290.119 213.221 291.954 212.835 293.443 212.062C294.943 211.278 296.068 210.068 296.818 208.431C297.579 206.784 297.96 204.659 297.96 202.056C297.96 199.477 297.579 197.369 296.818 195.732C296.068 194.096 294.949 192.892 293.46 192.119C291.971 191.346 290.136 190.96 287.954 190.96H283.25V213.221ZM322.586 220.056C319.893 220.056 317.575 219.511 315.632 218.42C313.7 217.318 312.211 215.761 311.166 213.75C310.12 211.727 309.598 209.335 309.598 206.573C309.598 203.88 310.12 201.517 311.166 199.482C312.211 197.448 313.683 195.863 315.581 194.727C317.49 193.59 319.728 193.022 322.297 193.022C324.024 193.022 325.632 193.301 327.12 193.857C328.62 194.403 329.927 195.227 331.041 196.329C332.166 197.431 333.041 198.818 333.666 200.488C334.291 202.147 334.603 204.09 334.603 206.318V208.312H312.495V203.812H327.768C327.768 202.767 327.541 201.84 327.086 201.034C326.632 200.227 326.001 199.596 325.194 199.142C324.399 198.676 323.473 198.443 322.416 198.443C321.314 198.443 320.336 198.698 319.484 199.21C318.643 199.71 317.984 200.386 317.507 201.238C317.03 202.079 316.785 203.017 316.774 204.051V208.329C316.774 209.625 317.013 210.744 317.49 211.687C317.978 212.63 318.666 213.357 319.552 213.869C320.439 214.38 321.49 214.636 322.706 214.636C323.513 214.636 324.251 214.522 324.922 214.295C325.592 214.068 326.166 213.727 326.643 213.272C327.12 212.818 327.484 212.261 327.734 211.602L334.45 212.045C334.109 213.659 333.41 215.068 332.353 216.272C331.308 217.465 329.956 218.397 328.297 219.068C326.649 219.727 324.745 220.056 322.586 220.056ZM363.048 193.363L353.895 219.545H345.713L336.559 193.363H344.23L349.667 212.096H349.94L355.361 193.363H363.048ZM385.838 194.676C385.701 193.301 385.116 192.232 384.082 191.471C383.048 190.71 381.645 190.329 379.872 190.329C378.667 190.329 377.65 190.5 376.821 190.84C375.991 191.17 375.355 191.63 374.912 192.221C374.48 192.812 374.264 193.482 374.264 194.232C374.241 194.857 374.372 195.403 374.656 195.869C374.951 196.335 375.355 196.738 375.866 197.079C376.378 197.409 376.968 197.698 377.639 197.948C378.309 198.187 379.025 198.392 379.787 198.562L382.923 199.312C384.446 199.653 385.843 200.107 387.116 200.676C388.389 201.244 389.491 201.943 390.423 202.772C391.355 203.602 392.076 204.579 392.588 205.704C393.111 206.829 393.378 208.119 393.389 209.573C393.378 211.71 392.832 213.562 391.753 215.13C390.684 216.687 389.139 217.897 387.116 218.761C385.105 219.613 382.679 220.039 379.838 220.039C377.02 220.039 374.565 219.607 372.474 218.744C370.395 217.88 368.77 216.602 367.599 214.909C366.44 213.204 365.832 211.096 365.775 208.585H372.917C372.997 209.755 373.332 210.732 373.923 211.517C374.525 212.289 375.326 212.875 376.326 213.272C377.338 213.659 378.48 213.852 379.753 213.852C381.003 213.852 382.088 213.67 383.008 213.306C383.94 212.943 384.662 212.437 385.173 211.789C385.684 211.142 385.94 210.397 385.94 209.556C385.94 208.772 385.707 208.113 385.241 207.579C384.787 207.045 384.116 206.59 383.23 206.215C382.355 205.84 381.281 205.5 380.008 205.193L376.207 204.238C373.264 203.522 370.94 202.403 369.236 200.88C367.531 199.357 366.684 197.306 366.696 194.727C366.684 192.613 367.247 190.767 368.383 189.187C369.531 187.607 371.105 186.375 373.105 185.488C375.105 184.602 377.378 184.159 379.923 184.159C382.514 184.159 384.775 184.602 386.707 185.488C388.65 186.375 390.162 187.607 391.241 189.187C392.321 190.767 392.878 192.596 392.912 194.676H385.838ZM410.149 220.056C407.456 220.056 405.138 219.511 403.194 218.42C401.263 217.318 399.774 215.761 398.728 213.75C397.683 211.727 397.16 209.335 397.16 206.573C397.16 203.88 397.683 201.517 398.728 199.482C399.774 197.448 401.245 195.863 403.143 194.727C405.052 193.59 407.291 193.022 409.859 193.022C411.586 193.022 413.194 193.301 414.683 193.857C416.183 194.403 417.49 195.227 418.603 196.329C419.728 197.431 420.603 198.818 421.228 200.488C421.853 202.147 422.166 204.09 422.166 206.318V208.312H400.058V203.812H415.331C415.331 202.767 415.103 201.84 414.649 201.034C414.194 200.227 413.564 199.596 412.757 199.142C411.961 198.676 411.035 198.443 409.978 198.443C408.876 198.443 407.899 198.698 407.047 199.21C406.206 199.71 405.547 200.386 405.069 201.238C404.592 202.079 404.348 203.017 404.336 204.051V208.329C404.336 209.625 404.575 210.744 405.052 211.687C405.541 212.63 406.228 213.357 407.115 213.869C408.001 214.38 409.052 214.636 410.268 214.636C411.075 214.636 411.814 214.522 412.484 214.295C413.155 214.068 413.728 213.727 414.206 213.272C414.683 212.818 415.047 212.261 415.297 211.602L422.013 212.045C421.672 213.659 420.973 215.068 419.916 216.272C418.87 217.465 417.518 218.397 415.859 219.068C414.211 219.727 412.308 220.056 410.149 220.056ZM438.734 220.056C436.052 220.056 433.745 219.488 431.814 218.352C429.893 217.204 428.416 215.613 427.382 213.579C426.359 211.545 425.848 209.204 425.848 206.556C425.848 203.875 426.365 201.522 427.399 199.5C428.444 197.465 429.927 195.88 431.848 194.744C433.768 193.596 436.052 193.022 438.7 193.022C440.984 193.022 442.984 193.437 444.7 194.267C446.416 195.096 447.774 196.261 448.774 197.761C449.774 199.261 450.325 201.022 450.427 203.045H443.575C443.382 201.738 442.87 200.687 442.041 199.892C441.223 199.085 440.149 198.681 438.819 198.681C437.694 198.681 436.711 198.988 435.87 199.602C435.041 200.204 434.393 201.085 433.927 202.244C433.461 203.403 433.228 204.806 433.228 206.454C433.228 208.125 433.456 209.545 433.91 210.715C434.376 211.886 435.03 212.778 435.87 213.392C436.711 214.005 437.694 214.312 438.819 214.312C439.649 214.312 440.393 214.142 441.052 213.801C441.723 213.46 442.274 212.965 442.706 212.318C443.149 211.659 443.439 210.869 443.575 209.948H450.427C450.314 211.948 449.768 213.71 448.791 215.232C447.825 216.744 446.49 217.926 444.785 218.778C443.081 219.63 441.064 220.056 438.734 220.056ZM487.292 202.09C487.292 205.897 486.571 209.136 485.128 211.806C483.696 214.477 481.741 216.517 479.264 217.926C476.798 219.323 474.025 220.022 470.946 220.022C467.843 220.022 465.059 219.318 462.593 217.909C460.128 216.5 458.179 214.46 456.747 211.789C455.315 209.119 454.599 205.886 454.599 202.09C454.599 198.284 455.315 195.045 456.747 192.375C458.179 189.704 460.128 187.67 462.593 186.272C465.059 184.863 467.843 184.159 470.946 184.159C474.025 184.159 476.798 184.863 479.264 186.272C481.741 187.67 483.696 189.704 485.128 192.375C486.571 195.045 487.292 198.284 487.292 202.09ZM479.809 202.09C479.809 199.625 479.44 197.545 478.701 195.852C477.974 194.159 476.946 192.875 475.616 192C474.287 191.125 472.73 190.687 470.946 190.687C469.162 190.687 467.605 191.125 466.275 192C464.946 192.875 463.912 194.159 463.173 195.852C462.446 197.545 462.082 199.625 462.082 202.09C462.082 204.556 462.446 206.636 463.173 208.329C463.912 210.022 464.946 211.306 466.275 212.181C467.605 213.056 469.162 213.494 470.946 213.494C472.73 213.494 474.287 213.056 475.616 212.181C476.946 211.306 477.974 210.022 478.701 208.329C479.44 206.636 479.809 204.556 479.809 202.09ZM492.623 229.363V193.363H499.782V197.761H500.106C500.424 197.056 500.885 196.34 501.487 195.613C502.101 194.875 502.896 194.261 503.873 193.772C504.862 193.272 506.089 193.022 507.555 193.022C509.464 193.022 511.226 193.522 512.839 194.522C514.453 195.511 515.743 197.005 516.709 199.005C517.674 200.994 518.157 203.488 518.157 206.488C518.157 209.409 517.686 211.875 516.743 213.886C515.811 215.886 514.538 217.403 512.924 218.437C511.322 219.46 509.527 219.971 507.538 219.971C506.129 219.971 504.93 219.738 503.941 219.272C502.964 218.806 502.163 218.221 501.538 217.517C500.913 216.801 500.436 216.079 500.106 215.352H499.885V229.363H492.623ZM499.731 206.454C499.731 208.011 499.947 209.369 500.379 210.528C500.811 211.687 501.436 212.59 502.254 213.238C503.072 213.875 504.066 214.193 505.237 214.193C506.419 214.193 507.419 213.869 508.237 213.221C509.055 212.562 509.674 211.653 510.095 210.494C510.527 209.323 510.743 207.977 510.743 206.454C510.743 204.943 510.532 203.613 510.112 202.465C509.691 201.318 509.072 200.42 508.254 199.772C507.436 199.125 506.43 198.801 505.237 198.801C504.055 198.801 503.055 199.113 502.237 199.738C501.43 200.363 500.811 201.25 500.379 202.397C499.947 203.545 499.731 204.897 499.731 206.454ZM544.782 200.829L538.135 201.238C538.021 200.67 537.777 200.159 537.402 199.704C537.027 199.238 536.532 198.869 535.919 198.596C535.316 198.312 534.595 198.17 533.754 198.17C532.629 198.17 531.68 198.409 530.907 198.886C530.135 199.352 529.748 199.977 529.748 200.761C529.748 201.386 529.998 201.914 530.498 202.346C530.998 202.778 531.856 203.125 533.072 203.386L537.811 204.34C540.356 204.863 542.254 205.704 543.504 206.863C544.754 208.022 545.379 209.545 545.379 211.431C545.379 213.147 544.873 214.653 543.862 215.948C542.862 217.244 541.487 218.255 539.737 218.982C537.998 219.698 535.993 220.056 533.72 220.056C530.254 220.056 527.493 219.335 525.436 217.892C523.39 216.437 522.191 214.46 521.839 211.96L528.981 211.585C529.197 212.642 529.72 213.448 530.549 214.005C531.379 214.551 532.441 214.823 533.737 214.823C535.01 214.823 536.032 214.579 536.805 214.09C537.589 213.59 537.987 212.948 537.998 212.164C537.987 211.505 537.709 210.965 537.163 210.545C536.618 210.113 535.777 209.784 534.64 209.556L530.106 208.653C527.549 208.142 525.646 207.255 524.396 205.994C523.157 204.732 522.538 203.125 522.538 201.17C522.538 199.488 522.993 198.039 523.902 196.823C524.822 195.607 526.112 194.67 527.771 194.011C529.441 193.352 531.396 193.022 533.635 193.022C536.941 193.022 539.544 193.721 541.441 195.119C543.351 196.517 544.464 198.42 544.782 200.829Z" fill="#171321"/>
<rect x="249.835" y="166.545" width="321" height="72" rx="36" stroke="#D1D0D3" stroke-width="2"/>
</g>
<defs>
<linearGradient id="paint0_linear_736_211" x1="10.05" y1="206" x2="810.05" y2="206" gradientUnits="userSpaceOnUse">
<stop stop-color="#E6DCF4"/>
<stop offset="1" stop-color="#FFD0BE"/>
</linearGradient>
<linearGradient id="paint1_linear_736_211" x1="503.1" y1="159.76" x2="729.42" y2="321.57" gradientUnits="userSpaceOnUse">
<stop stop-color="#2B2838" stop-opacity="0.24"/>
<stop offset="0.56" stop-color="#45424D" stop-opacity="0"/>
</linearGradient>
<linearGradient id="paint2_linear_736_211" x1="312.26" y1="256.26" x2="187.79" y2="161.2" gradientUnits="userSpaceOnUse">
<stop stop-color="#2B2838" stop-opacity="0.24"/>
<stop offset="1" stop-color="#45424D" stop-opacity="0"/>
</linearGradient>
<clipPath id="clip0_736_211">
<rect width="820" height="412" fill="white"/>
</clipPath>
<clipPath id="clip1_736_211">
<rect width="40" height="38.4" fill="white" transform="translate(390 320)"/>
</clipPath>
</defs>
</svg>
